KKH_forecast_realattempt
…
moddev_targets_df_naomit <- na.omit(moddev_targets_df)

#split your data into testing and training data
split <- initial_split(moddev_targets_df_naomit, prop = 0.75, strata = site_id)
split

## <Training/Testing/Total>
## <1834/613/2447>

#create training dataset
train_data <- training(split)
train_data

## # A tibble: 1,834 x 9
##    datetime   site_id temperature air_pressure air_temperature eastward_wind
##    <date>     <chr>         <dbl>        <dbl>           <dbl>         <dbl>
##  1 2021-01-01 BARC           17.2      101604.           22.3          2.71 
##  2 2021-01-02 BARC           18.5      101519.           21.6          2.50 
##  3 2021-01-04 BARC           17.7      101436.           12.2         -1.63 
##  4 2021-01-06 BARC           16.3      101573.           12.1         -1.46 
##  5 2021-01-09 BARC           15.6      101496.            8.14        -1.34 
##  6 2021-01-10 BARC           15.0      102030.            6.87        -1.32 
##  7 2021-01-11 BARC           15.0      101917.           12.8          0.406
##  8 2021-01-12 BARC           15.4      101685.           15.9          0.358
##  9 2021-01-13 BARC           15.1      101771.           10.2         -0.988
## 10 2021-01-14 BARC           14.9      101352.            9.70        -0.373
## # i 1,824 more rows
## # i 3 more variables: northward_wind <dbl>, precipitation_flux <dbl>, doy <dbl>

#create testing dataset
test_data <- testing(split)
test_data

## # A tibble: 613 x 9
##    datetime   site_id temperature air_pressure air_temperature eastward_wind
##    <date>     <chr>         <dbl>        <dbl>           <dbl>         <dbl>
##  1 2021-01-03 BARC           19.0      101303.           19.9         0.756 
##  2 2021-01-05 BARC           16.7      101362.           12.3        -0.688 
##  3 2021-01-07 BARC           16.1      101379.           14.2         0.0914
##  4 2021-01-08 BARC           16.1      100925.           14.1         0.0501
##  5 2021-01-15 BARC           14.9      100867.           12.6         2.40  
##  6 2021-01-25 BARC           16.3      101375.           19.6         1.51  
##  7 2021-01-29 BARC           16.5      102226.            9.78       -1.41  
##  8 2021-02-02 BARC           15.4      101021.            6.83       -2.12  
##  9 2021-02-05 BARC           14.5      101116.           12.9         2.47  
## 10 2021-02-06 BARC           14.6      101144.           14.3        -1.70  
## # i 603 more rows
## # i 3 more variables: northward_wind <dbl>, precipitation_flux <dbl>, doy <dbl>
…
Make new predictions

predictions <- predict(fit, new_data = test_data)
pred_test <- bind_cols(test_data, predictions)
pred_test

## # A tibble: 613 x 10
##    datetime   site_id temperature air_pressure air_temperature eastward_wind
##    <date>     <chr>         <dbl>        <dbl>           <dbl>         <dbl>
##  1 2021-01-03 BARC           19.0      101303.           19.9         0.756 
##  2 2021-01-05 BARC           16.7      101362.           12.3        -0.688 
##  3 2021-01-07 BARC           16.1      101379.           14.2         0.0914
##  4 2021-01-08 BARC           16.1      100925.           14.1         0.0501
##  5 2021-01-15 BARC           14.9      100867.           12.6         2.40  
##  6 2021-01-25 BARC           16.3      101375.           19.6         1.51  
##  7 2021-01-29 BARC           16.5      102226.            9.78       -1.41  
##  8 2021-02-02 BARC           15.4      101021.            6.83       -2.12  
##  9 2021-02-05 BARC           14.5      101116.           12.9         2.47  
## 10 2021-02-06 BARC           14.6      101144.           14.3        -1.70  
## # i 603 more rows
## # i 4 more variables: northward_wind <dbl>, precipitation_flux <dbl>,
## #   doy <dbl>, .pred <dbl>
…
# Loop through each site and datetime to fit the model
forecast_df <- NULL

targets_future <- noaa_future_daily |> 
  mutate(temperature = NA,
         doy = yday(datetime)) |> 
  filter(parameter == 1) |> 
  select(-parameter)

targets_future

## # A tibble: 245 x 9
##    datetime   site_id air_temperature precipitation_flux eastward_wind
##    <date>     <chr>             <dbl>              <dbl>         <dbl>
##  1 2024-05-06 BARC               25.1         0.00000926          1.53
##  2 2024-05-06 CRAM               12.0         0                   1.34
##  3 2024-05-06 LIRO               12.0         0                   1.34
##  4 2024-05-06 PRLA               13.9         0.00000270          7.26
##  5 2024-05-06 PRPO               13.7         0.00000453          7.51
##  6 2024-05-06 SUGG               25.1         0.00000926          1.53
##  7 2024-05-06 TOOK              -20.1         0.00000255         -1.17
##  8 2024-05-07 BARC               25.8         0.00000905          1.48
##  9 2024-05-07 CRAM               10.7         0.0000939           2.31
## 10 2024-05-07 LIRO               10.7         0.0000939           2.31
## # i 235 more rows
## # i 4 more variables: northward_wind <dbl>, air_pressure <dbl>,
## #   temperature <lgl>, doy <dbl>
…
